{
  "project_info": {
    "project_number": "416374186007",
    "firebase_url": "https://os-mobile-871af.firebaseio.com",
    "project_id": "os-mobile-871af",
    "storage_bucket": "os-mobile-871af.appspot.com"
  },
  "client": [
    {
      "client_info": {
        "mobilesdk_app_id": "1:416374186007:android:a8a118c5be6fd2a3",
        "android_client_info": {
          "package_name": "eres.osmobile.com"
        }
      },
      "oauth_client": [
        {
          "client_id": "416374186007-7rivnr4ica7urlnbu7k5rf9p8qr7go8i.apps.googleusercontent.com",
          "client_type": 1,
          "android_info": {
            "package_name": "eres.osmobile.com",
            "certificate_hash": "739c4fdaebe801e353d3141bebb4452548eff30f"
          }
        },
        {
          "client_id": "416374186007-i6s82bjru10rdjisk7jogva917p6hjup.apps.googleusercontent.com",
          "client_type": 1,
          "android_info": {
            "package_name": "eres.osmobile.com",
            "certificate_hash": "20d1ff8fe9528212d4834dcf4389d22a2dcaaee3"
          }
        },
        {
          "client_id": "416374186007-snors0bafipi95mo8dajkvf06jgj5ikt.apps.googleusercontent.com",
          "client_type": 1,
          "android_info": {
            "package_name": "eres.osmobile.com",
            "certificate_hash": "fe8a112bd49161bd2839902517dbee69e9600ef9"
          }
        },
        {
          "client_id": "416374186007-9he57g3366648o3h4r2lp50vc0f9l1i0.apps.googleusercontent.com",
          "client_type": 3
        }
      ],
      "api_key": [
        {
          "current_key": "AIzaSyCIfoleUhknX_gZVr9HNDfPTf0zKoIe_yc"
        }
      ],
      "services": {
        "analytics_service": {
          "status": 1
        },
        "appinvite_service": {
          "status": 2,
          "other_platform_oauth_client": [
            {
              "client_id": "416374186007-9he57g3366648o3h4r2lp50vc0f9l1i0.apps.googleusercontent.com",
              "client_type": 3
            }
          ]
        },
        "ads_service": {
          "status": 2
        }
      }
    }
  ],
  "configuration_version": "1"
}